<?xml version="1.0" encoding="UTF-8" standalone="no"?>
<svg
   xmlns:dc="http://purl.org/dc/elements/1.1/"
   xmlns:cc="http://creativecommons.org/ns#"
   xmlns:rdf="http://www.w3.org/1999/02/22-rdf-syntax-ns#"
   xmlns:svg="http://www.w3.org/2000/svg"
   xmlns="http://www.w3.org/2000/svg"
   xmlns:xlink="http://www.w3.org/1999/xlink"
   xmlns:sodipodi="http://sodipodi.sourceforge.net/DTD/sodipodi-0.dtd"
   xmlns:inkscape="http://www.inkscape.org/namespaces/inkscape"
   viewBox="0 0 64 64"
   id="svg2"
   version="1.1"
   inkscape:version="0.91 r13725"
   sodipodi:docname="folder-downloads.svg">
  <metadata
     id="metadata28">
    <rdf:RDF>
      <cc:Work
         rdf:about="">
        <dc:format>image/svg+xml</dc:format>
        <dc:type
           rdf:resource="http://purl.org/dc/dcmitype/StillImage" />
      </cc:Work>
    </rdf:RDF>
  </metadata>
  <sodipodi:namedview
     pagecolor="#ffffff"
     bordercolor="#666666"
     borderopacity="1"
     objecttolerance="10"
     gridtolerance="10"
     guidetolerance="10"
     inkscape:pageopacity="0"
     inkscape:pageshadow="2"
     inkscape:window-width="1366"
     inkscape:window-height="746"
     id="namedview26"
     showgrid="false"
     inkscape:zoom="3.6875"
     inkscape:cx="0.40677966"
     inkscape:cy="32"
     inkscape:window-x="0"
     inkscape:window-y="22"
     inkscape:window-maximized="1"
     inkscape:current-layer="g18" />
  <defs
     id="defs4">
    <linearGradient
       xlink:href="#1"
       id="3"
       x1="243.91"
       y1="557.25"
       x2="231.11"
       y2="-25.616"
       gradientUnits="userSpaceOnUse" />
    <linearGradient
       gradientUnits="userSpaceOnUse"
       y2="354.29"
       x2="-704.05"
       y1="647.77"
       x1="-701.19"
       id="2">
      <stop
         stop-color="#93cfff"
         id="stop8" />
      <stop
         offset="1"
         stop-color="#cde8fe"
         id="stop10" />
    </linearGradient>
    <linearGradient
       xlink:href="#1"
       id="0"
       x1="59.12"
       y1="-13.295"
       x2="59.15"
       y2="-37.783"
       gradientUnits="userSpaceOnUse"
       gradientTransform="matrix(4.17478 0 0 4.16765-1066.12 447.73)" />
    <linearGradient
       id="1">
      <stop
         stop-color="#289bf7"
         id="stop14" />
      <stop
         offset="1"
         stop-color="#71b9f1"
         id="stop16" />
    </linearGradient>
  </defs>
  <g
     transform="matrix(.03922 0 0 .03922 22.2 25.445)"
     id="g18">
    <path
       d="m-880.52 294.78c-4.626 0-8.349 3.718-8.349 8.335v161.41l461.02 1v-121.2c0-4.618-3.724-8.335-8.35-8.335h-265.48c-8.51.751-9.607-.377-13.812-5.981-5.964-7.968-14.969-21.443-20.84-29.21-4.712-6.805-5.477-6.02-13.292-6.02z"
       transform="matrix(3.21655 0 0 3.21655 2367.42-1357.37)"
       fill="url(#0)"
       color="#000"
       id="path20" />
    <rect
       y="356.85"
       x="-890.28"
       height="295.13"
       width="463.85"
       transform="matrix(3.21655 0 0 3.21655 2367.42-1357.37)"
       fill="url(#2)"
       stroke="url(#2)"
       stroke-width="2.378"
       rx="9.63"
       id="rect22" />
    <path
       d="m239.6-25.505c-168.99 0-306 136.99-306 306 0 169.01 137.01 306 306 306 168.99 0 306-137.01 306-306 0-168.99-136.99-306-306-306m0 158.33c11.404 0 20.619 9.265 20.619 20.669v218.69l85.17-85.17c8.08-8.06 21.14-8.03 29.24.051 8.08 8.06 8.08 21.11 0 29.19l-116.84 116.89c-4.958 4.936-11.774 6.464-18.18 5.328-6.426 1.136-13.221-.371-18.18-5.329l-116.84-116.89c-8.08-8.06-8.08-21.11 0-29.19 8.06-8.08 21.11-8.08 29.19 0l85.17 85.12v-218.69c0-11.404 9.265-20.669 20.669-20.669"
       fill="url(#3)"
       id="path24" />
  </g>
</svg>
