<?xml version="1.0" encoding="UTF-8" standalone="no"?>
<svg
   xmlns:dc="http://purl.org/dc/elements/1.1/"
   xmlns:cc="http://creativecommons.org/ns#"
   xmlns:rdf="http://www.w3.org/1999/02/22-rdf-syntax-ns#"
   xmlns:svg="http://www.w3.org/2000/svg"
   xmlns="http://www.w3.org/2000/svg"
   xmlns:xlink="http://www.w3.org/1999/xlink"
   xmlns:sodipodi="http://sodipodi.sourceforge.net/DTD/sodipodi-0.dtd"
   xmlns:inkscape="http://www.inkscape.org/namespaces/inkscape"
   viewBox="0 0 64 64"
   id="svg2"
   version="1.1"
   inkscape:version="0.91 r13725"
   sodipodi:docname="folder-android.svg">
  <metadata
     id="metadata28">
    <rdf:RDF>
      <cc:Work
         rdf:about="">
        <dc:format>image/svg+xml</dc:format>
        <dc:type
           rdf:resource="http://purl.org/dc/dcmitype/StillImage" />
        <dc:title />
      </cc:Work>
    </rdf:RDF>
  </metadata>
  <sodipodi:namedview
     pagecolor="#ffffff"
     bordercolor="#666666"
     borderopacity="1"
     objecttolerance="10"
     gridtolerance="10"
     guidetolerance="10"
     inkscape:pageopacity="0"
     inkscape:pageshadow="2"
     inkscape:window-width="1366"
     inkscape:window-height="746"
     id="namedview26"
     showgrid="false"
     inkscape:zoom="10.429825"
     inkscape:cx="32.840808"
     inkscape:cy="28.743023"
     inkscape:window-x="0"
     inkscape:window-y="22"
     inkscape:window-maximized="1"
     inkscape:current-layer="svg2" />
  <defs
     id="defs4">
    <linearGradient
       xlink:href="#1"
       id="3"
       x1="-419.39"
       y1="456.96"
       x2="-425.14"
       y2="271.84"
       gradientUnits="userSpaceOnUse" />
    <linearGradient
       gradientUnits="userSpaceOnUse"
       y2="354.29"
       x2="-704.05"
       y1="647.77"
       x1="-701.19"
       id="2">
      <stop
         stop-color="#93cfff"
         id="stop8" />
      <stop
         offset="1"
         stop-color="#cde8fe"
         id="stop10" />
    </linearGradient>
    <linearGradient
       xlink:href="#1"
       id="0"
       x1="59.12"
       y1="-13.295"
       x2="59.15"
       y2="-37.783"
       gradientUnits="userSpaceOnUse"
       gradientTransform="matrix(4.17478 0 0 4.16765-1066.12 447.73)" />
    <linearGradient
       id="1">
      <stop
         stop-color="#289bf7"
         id="stop14" />
      <stop
         offset="1"
         stop-color="#71b9f1"
         id="stop16" />
    </linearGradient>
    <linearGradient
       gradientTransform="translate(-30.086076,30.731574)"
       xlink:href="#1"
       id="3-2"
       x1="-423.69"
       y1="447.89001"
       x2="-422.39001"
       y2="290.14001"
       gradientUnits="userSpaceOnUse" />
    <linearGradient
       inkscape:collect="always"
       xlink:href="#1"
       id="linearGradient4157"
       x1="11.463417"
       y1="11.769555"
       x2="27.463417"
       y2="11.769555"
       gradientUnits="userSpaceOnUse" />
  </defs>
  <g
     transform="matrix(.12614 0 0 .12614 85.51-10.1)"
     id="g18">
    <path
       d="m-880.52 294.78c-4.626 0-8.349 3.718-8.349 8.335v161.41l461.02 1v-121.2c0-4.618-3.724-8.335-8.35-8.335h-265.48c-8.51.751-9.607-.377-13.812-5.981-5.964-7.968-14.969-21.443-20.84-29.21-4.712-6.805-5.477-6.02-13.292-6.02z"
       transform="translate(234.13-140.27)"
       fill="url(#0)"
       color="#000"
       id="path20" />
    <rect
       y="356.85"
       x="-890.28"
       height="295.13"
       width="463.85"
       rx="9.63"
       id="rect22"
       stroke-width="2.378"
       stroke="url(#2)"
       fill="url(#2)"
       transform="translate(234.13-140.27)" />
  </g>
  <g
     id="g4188"
     transform="matrix(1.4870601,0,0,1.4870601,3.0549844,18.331215)"
     style="fill-opacity:1.0;fill:url(#linearGradient4157)">
    <path
       inkscape:connector-curvature="0"
       style="opacity:1;fill:url(#linearGradient4157);fill-opacity:1.0;enable-background:new"
       d="m 18.305212,3.7695558 c -0.201131,0 -0.326393,0.096589 -0.375,0.2910157 -0.09051,0.3469514 -0.190159,0.9930204 -0.300781,1.9375 -0.326,0.1039174 -0.641378,0.2372553 -0.947265,0.3964843 l -1.4375,-1.1152343 c -0.09051,-0.069558 -0.180976,-0.1035157 -0.271485,-0.1035157 -0.152525,0 -0.480709,0.2471782 -0.984375,0.7441407 -0.503666,0.4969617 -0.846049,0.8713555 -1.02539,1.1210937 -0.06285,0.090509 -0.09375,0.1687233 -0.09375,0.2382813 0,0.082966 0.03396,0.1670332 0.103515,0.25 0.465116,0.5623295 0.837003,1.0419417 1.115235,1.4375 -0.173476,0.3192958 -0.31099,0.6396883 -0.408204,0.9589843 l -1.9375,0.2910162 c -0.07626,0.01425 -0.141954,0.05767 -0.197265,0.134765 -0.05532,0.07626 -0.08203,0.15643 -0.08203,0.240235 l 0,2.3125 c 0,0.09051 0.02672,0.17123 0.08203,0.24414 0.05531,0.07291 0.128241,0.116613 0.21875,0.13086 l 1.90625,0.28125 c 0.09721,0.340247 0.240012,0.684298 0.427734,1.03125 -0.124868,0.173476 -0.312762,0.418431 -0.5625,0.734375 -0.249738,0.315944 -0.427332,0.546701 -0.53125,0.693359 -0.05531,0.07626 -0.08203,0.15643 -0.08203,0.240235 0,0.09051 0.02366,0.168723 0.07227,0.238281 0.270689,0.375445 0.846343,0.958883 1.71875,1.75 0.07626,0.07626 0.164506,0.115234 0.261719,0.115234 0.103918,0 0.190208,-0.0309 0.259766,-0.09375 l 1.46875,-1.115234 c 0.284936,0.14582 0.597252,0.275258 0.9375,0.386719 l 0.292968,1.916015 c 0.0067,0.09051 0.04623,0.165948 0.119141,0.224609 0.07291,0.0595 0.157531,0.08789 0.253906,0.08789 l 2.3125,0 c 0.20197,0 0.328349,-0.09659 0.376953,-0.291015 0.09051,-0.346952 0.190159,-0.993023 0.300782,-1.9375 0.326,-0.103918 0.642216,-0.237256 0.947265,-0.396485 l 1.4375,1.125 c 0.09721,0.06202 0.188518,0.09375 0.271485,0.09375 0.152524,0 0.479039,-0.245509 0.978515,-0.738281 0.500315,-0.492772 0.84688,-0.868558 1.03125,-1.125 0.06285,-0.06956 0.09375,-0.149727 0.09375,-0.240234 0,-0.09051 -0.03396,-0.176799 -0.103515,-0.259766 -0.499476,-0.610937 -0.872201,-1.090549 -1.115235,-1.4375 0.139116,-0.257281 0.273839,-0.574612 0.40625,-0.949219 l 1.925782,-0.291015 c 0.08297,-0.01425 0.152835,-0.0585 0.208984,-0.134766 0.05531,-0.07626 0.08398,-0.15727 0.08398,-0.240234 l 0,-2.312501 c 0,-0.09051 -0.02867,-0.17123 -0.08398,-0.24414 l -0.002,-0.0019 c -0.05615,-0.07291 -0.128241,-0.117451 -0.21875,-0.13086 L 25.254431,9.9668215 C 25.150513,9.6332786 25.007715,9.2922887 24.826697,8.9453371 c 0.124869,-0.1734758 0.312762,-0.416478 0.5625,-0.7324219 0.249738,-0.3159439 0.427332,-0.5467011 0.53125,-0.6933594 0.05531,-0.076262 0.08203,-0.1564298 0.08203,-0.2402343 0,-0.097213 -0.02366,-0.1732046 -0.07227,-0.2285157 -0.249738,-0.354494 -0.822877,-0.9451699 -1.71875,-1.7714843 -0.08297,-0.069558 -0.170094,-0.1035157 -0.259765,-0.1035157 -0.103918,0 -0.187985,0.0309 -0.25,0.09375 L 22.223181,6.3847902 C 21.938245,6.23897 21.625928,6.1095313 21.285681,5.9980715 L 20.992712,4.0820558 c -0.0067,-0.090509 -0.04623,-0.1639931 -0.11914,-0.2226562 -0.07291,-0.058662 -0.157808,-0.089844 -0.25586,-0.089844 l -2.3125,0 z m -1.58789,3.9628907 c 0.05496,0.014224 0.103554,0.048552 0.134765,0.1015624 l 1.087891,1.8496094 c 0.992385,-0.4341867 2.143693,-0.4422121 3.148437,-0.041016 l 1.058594,-1.8007812 c 0.03121,-0.053011 0.08176,-0.087338 0.136719,-0.1015626 0.05496,-0.014224 0.114958,-0.00777 0.167969,0.023438 0.106021,0.062424 0.140548,0.1986657 0.07813,0.3046874 l -1.041021,1.7695309 c 1.304793,0.7001012 2.242869,2.1324302 1.96875,4.2734382 -2.178085,1.235282 -5.687496,1.308809 -7.808594,-0.04883 -0.141824,-2.115732 0.708477,-3.486425 1.892579,-4.1816395 l -1.072266,-1.820312 c -0.06242,-0.1060219 -0.0279,-0.2422639 0.07813,-0.3046876 0.05301,-0.031212 0.114964,-0.037662 0.169922,-0.023437 z"
       id="path15" />
    <circle
       cx="18.039017"
       cy="12.062105"
       id="circle25"
       style="opacity:1;fill:url(#linearGradient4157);fill-opacity:1.0;enable-background:new"
       r="0.63943011" />
    <circle
       cx="21.063528"
       cy="12.04283"
       id="circle27"
       style="opacity:1;fill:url(#linearGradient4157);fill-opacity:1.0;stroke:none;stroke-opacity:0;enable-background:new"
       r="0.63943011" />
  </g>
</svg>
