<?xml version="1.0" encoding="UTF-8" standalone="no"?>
<svg
   xmlns:dc="http://purl.org/dc/elements/1.1/"
   xmlns:cc="http://creativecommons.org/ns#"
   xmlns:rdf="http://www.w3.org/1999/02/22-rdf-syntax-ns#"
   xmlns:svg="http://www.w3.org/2000/svg"
   xmlns="http://www.w3.org/2000/svg"
   xmlns:xlink="http://www.w3.org/1999/xlink"
   xmlns:sodipodi="http://sodipodi.sourceforge.net/DTD/sodipodi-0.dtd"
   xmlns:inkscape="http://www.inkscape.org/namespaces/inkscape"
   viewBox="0 0 32 32"
   id="svg2"
   version="1.1"
   inkscape:version="0.91 r13725"
   sodipodi:docname="folder-favorites.svg">
  <metadata
     id="metadata37">
    <rdf:RDF>
      <cc:Work
         rdf:about="">
        <dc:format>image/svg+xml</dc:format>
        <dc:type
           rdf:resource="http://purl.org/dc/dcmitype/StillImage" />
        <dc:title></dc:title>
      </cc:Work>
    </rdf:RDF>
  </metadata>
  <sodipodi:namedview
     pagecolor="#ffffff"
     bordercolor="#666666"
     borderopacity="1"
     objecttolerance="10"
     gridtolerance="10"
     guidetolerance="10"
     inkscape:pageopacity="0"
     inkscape:pageshadow="2"
     inkscape:window-width="1366"
     inkscape:window-height="746"
     id="namedview35"
     showgrid="false"
     inkscape:zoom="7.375"
     inkscape:cx="16"
     inkscape:cy="16"
     inkscape:window-x="0"
     inkscape:window-y="22"
     inkscape:window-maximized="1"
     inkscape:current-layer="svg2" />
  <defs
     id="defs4">
    <linearGradient
       gradientUnits="userSpaceOnUse"
       y2="352.98"
       x2="-601.15"
       y1="663.95"
       x1="-591.02"
       id="3">
      <stop
         stop-color="#289bf7"
         id="stop7" />
      <stop
         offset="1"
         stop-color="#4caaf4"
         id="stop9" />
    </linearGradient>
    <linearGradient
       xlink:href="#1"
       id="4"
       x1="390.78"
       y1="543.84"
       x2="391.24"
       y2="528.79"
       gradientUnits="userSpaceOnUse" />
    <linearGradient
       gradientUnits="userSpaceOnUse"
       y2="354.29"
       x2="-704.05"
       y1="647.77"
       x1="-701.19"
       id="2">
      <stop
         stop-color="#9fd2fa"
         id="stop13" />
      <stop
         offset="1"
         stop-color="#cde8fe"
         id="stop15" />
    </linearGradient>
    <linearGradient
       xlink:href="#1"
       id="0"
       x1="59.12"
       y1="-13.295"
       x2="59.15"
       y2="-37.783"
       gradientUnits="userSpaceOnUse"
       gradientTransform="matrix(4.17478 0 0 4.16765-1069.7 447.73)" />
    <linearGradient
       id="1">
      <stop
         stop-color="#289bf7"
         id="stop19" />
      <stop
         offset="1"
         stop-color="#71b9f1"
         id="stop21" />
    </linearGradient>
    <radialGradient
       inkscape:collect="always"
       xlink:href="#3"
       id="radialGradient4185"
       cx="24.406775"
       cy="18.305082"
       fx="24.406775"
       fy="18.305082"
       r="5.073802"
       gradientTransform="matrix(1,0,0,1.1825448,-8.4029853,-3.9502224)"
       gradientUnits="userSpaceOnUse" />
  </defs>
  <g
     transform="translate(-384.57-515.8)"
     id="g23">
    <g
       transform="matrix(.0558 0 0 .0558 437.31 505.35)"
       id="g25">
      <path
         d="m-884.1 294.78c-4.626 0-8.349 3.718-8.349 8.335v161.41l468.19 1v-121.2c0-4.618-3.724-8.335-8.35-8.335h-272.65c-8.51.751-9.607-.377-13.812-5.981-5.964-7.968-14.969-21.443-20.84-29.21-4.712-6.805-5.477-6.02-13.292-6.02z"
         id="path27"
         fill="url(#0)"
         color="#000" />
      <rect
         y="356.85"
         x="-890.28"
         height="295.13"
         width="463.85"
         rx="9.63"
         id="rect29"
         style="opacity:1"
         stroke-width="2.378"
         stroke="url(#2)"
         fill="url(#2)" />
      <rect
         y="356.85"
         x="-890.28"
         height="295.13"
         width="463.85"
         rx="9.63"
         id="rect31"
         stroke-linejoin="round"
         stroke-linecap="round"
         stroke-width="5.376"
         stroke="url(#3)"
         fill="none" />
    </g>
  </g>
  <path
     style="color:#000000;clip-rule:nonzero;display:inline;overflow:visible;visibility:visible;opacity:1;isolation:auto;mix-blend-mode:normal;color-interpolation:sRGB;color-interpolation-filters:linearRGB;solid-color:#000000;solid-opacity:1;fill:url(#radialGradient4185);fill-opacity:1.0;fill-rule:nonzero;stroke:none;stroke-width:1px;stroke-linecap:butt;stroke-linejoin:miter;stroke-miterlimit:4;stroke-dasharray:none;stroke-dashoffset:0;stroke-opacity:1;color-rendering:auto;image-rendering:auto;shape-rendering:auto;text-rendering:auto;enable-background:accumulate"
     d="M 11.535336,23.65131 C 11.28129,23.55408 11.14799,23.435241 11.035824,23.205982 l -0.105836,-0.216321 0.01087,-5.3591 0.01087,-5.359101 0.132685,-0.191061 c 0.08602,-0.123874 0.201588,-0.224991 0.328628,-0.28755 l 0.195944,-0.09649 4.415945,0 c 4.232336,0 4.421922,0.0032 4.559719,0.07669 0.201055,0.107247 0.323772,0.226876 0.414783,0.404344 0.07565,0.147514 0.07816,0.324647 0.07816,5.516432 0,5.191784 -0.0026,5.368916 -0.07816,5.516431 -0.15812,0.308331 -0.437218,0.473459 -0.805029,0.4763 -0.159547,0.0012 -0.301369,-0.02487 -0.402129,-0.07401 -0.0868,-0.04233 -0.957109,-0.846592 -1.967272,-1.817964 l -1.811614,-1.74205 -0.333127,0.321237 c -2.32715,2.244086 -3.262639,3.127954 -3.394586,3.20727 -0.199254,0.119775 -0.538078,0.151505 -0.750345,0.07027 z"
     id="path4149"
     inkscape:connector-curvature="0" />
</svg>
