<?xml version="1.0" encoding="UTF-8" standalone="no"?>
<svg
   xmlns:dc="http://purl.org/dc/elements/1.1/"
   xmlns:cc="http://creativecommons.org/ns#"
   xmlns:rdf="http://www.w3.org/1999/02/22-rdf-syntax-ns#"
   xmlns:svg="http://www.w3.org/2000/svg"
   xmlns="http://www.w3.org/2000/svg"
   xmlns:xlink="http://www.w3.org/1999/xlink"
   xmlns:sodipodi="http://sodipodi.sourceforge.net/DTD/sodipodi-0.dtd"
   xmlns:inkscape="http://www.inkscape.org/namespaces/inkscape"
   viewBox="0 0 64 64"
   id="svg2"
   version="1.1"
   inkscape:version="0.91 r13725"
   sodipodi:docname="folder-gnu-linux.svg">
  <metadata
     id="metadata28">
    <rdf:RDF>
      <cc:Work
         rdf:about="">
        <dc:format>image/svg+xml</dc:format>
        <dc:type
           rdf:resource="http://purl.org/dc/dcmitype/StillImage" />
        <dc:title></dc:title>
      </cc:Work>
    </rdf:RDF>
  </metadata>
  <sodipodi:namedview
     pagecolor="#ffffff"
     bordercolor="#666666"
     borderopacity="1"
     objecttolerance="10"
     gridtolerance="10"
     guidetolerance="10"
     inkscape:pageopacity="0"
     inkscape:pageshadow="2"
     inkscape:window-width="1366"
     inkscape:window-height="746"
     id="namedview26"
     showgrid="false"
     inkscape:zoom="3.6875"
     inkscape:cx="0.40677966"
     inkscape:cy="32"
     inkscape:window-x="0"
     inkscape:window-y="22"
     inkscape:window-maximized="1"
     inkscape:current-layer="g18" />
  <defs
     id="defs4">
    <linearGradient
       xlink:href="#1"
       id="3"
       x1="243.91"
       y1="557.25"
       x2="231.11"
       y2="-25.616"
       gradientUnits="userSpaceOnUse" />
    <linearGradient
       gradientUnits="userSpaceOnUse"
       y2="354.29"
       x2="-704.05"
       y1="647.77"
       x1="-701.19"
       id="2">
      <stop
         stop-color="#93cfff"
         id="stop8" />
      <stop
         offset="1"
         stop-color="#cde8fe"
         id="stop10" />
    </linearGradient>
    <linearGradient
       xlink:href="#1"
       id="0"
       x1="59.12"
       y1="-13.295"
       x2="59.15"
       y2="-37.783"
       gradientUnits="userSpaceOnUse"
       gradientTransform="matrix(4.17478 0 0 4.16765-1066.12 447.73)" />
    <linearGradient
       id="1">
      <stop
         stop-color="#289bf7"
         id="stop14" />
      <stop
         offset="1"
         stop-color="#71b9f1"
         id="stop16" />
    </linearGradient>
    <linearGradient
       gradientTransform="matrix(1.9190625,0,0,1.9190625,1.2916912,1.8820444)"
       inkscape:collect="always"
       xlink:href="#3-0"
       id="linearGradient4177"
       x1="9.8010015"
       y1="17.696358"
       x2="22.198997"
       y2="17.696358"
       gradientUnits="userSpaceOnUse" />
    <linearGradient
       gradientUnits="userSpaceOnUse"
       y2="352.98001"
       x2="-601.15002"
       y1="663.95001"
       x1="-591.02002"
       id="3-0">
      <stop
         stop-color="#289bf7"
         id="stop7" />
      <stop
         offset="1"
         stop-color="#4caaf4"
         id="stop9" />
    </linearGradient>
  </defs>
  <g
     transform="matrix(.03922 0 0 .03922 22.2 25.445)"
     id="g18">
    <path
       d="m-880.52 294.78c-4.626 0-8.349 3.718-8.349 8.335v161.41l461.02 1v-121.2c0-4.618-3.724-8.335-8.35-8.335h-265.48c-8.51.751-9.607-.377-13.812-5.981-5.964-7.968-14.969-21.443-20.84-29.21-4.712-6.805-5.477-6.02-13.292-6.02z"
       transform="matrix(3.21655 0 0 3.21655 2367.42-1357.37)"
       fill="url(#0)"
       color="#000"
       id="path20" />
    <rect
       y="356.85"
       x="-890.28"
       height="295.13"
       width="463.85"
       transform="matrix(3.21655 0 0 3.21655 2367.42-1357.37)"
       fill="url(#2)"
       stroke="url(#2)"
       stroke-width="2.378"
       rx="9.63"
       id="rect22" />
  </g>
  <path
     style="opacity:0.95999995;fill:url(#linearGradient4177);fill-opacity:1"
     d="m 31.405099,47.732799 c -3.081951,-0.189988 -5.81815,-1.425288 -7.932452,-3.597091 -1.834862,-1.886057 -2.942528,-4.167438 -3.292801,-6.784078 -0.105893,-0.791229 -0.105893,-2.237051 0,-3.028088 0.350273,-2.616834 1.457939,-4.898983 3.292801,-6.783119 1.886902,-1.937293 4.301045,-3.147262 7.009228,-3.513035 0.793152,-0.101711 2.236964,-0.101711 3.030117,0 3.504302,0.471897 6.565392,2.401706 8.487243,5.351113 0.963713,1.47979 1.573868,3.141698 1.814579,4.945041 0.09503,0.711588 0.10672,2.179095 0.02288,2.862473 -0.439786,3.587494 -2.351792,6.662793 -5.376845,8.647679 -1.412044,0.926524 -3.208212,1.588217 -4.900387,1.804495 -0.579496,0.06717 -1.684085,0.117063 -2.154276,0.08636 z m 2.911609,-1.675342 c 0.561892,-0.118982 1.245787,-0.345047 1.799382,-0.580708 0.449026,-0.194977 1.439172,-0.718113 1.65034,-0.879315 l 0.111594,-0.07868 -0.117773,-0.279224 c -0.06475,-0.161201 -0.205445,-0.473624 -0.312588,-0.710437 -0.222399,-0.491665 -0.305335,-0.853601 -0.261882,-1.142803 0.01727,-0.101711 0.03746,-0.201502 0.04623,-0.201502 0.0081,0 0.09231,0.04798 0.185247,0.109387 0.568106,0.385156 1.730131,0.229903 2.570632,-0.344664 0.577093,-0.394943 1.241315,-1.191738 1.620598,-1.945354 0.330394,-0.657468 0.664493,-1.869932 0.808346,-2.934244 0.081,-0.600475 0.06851,-1.959939 -0.0242,-2.626621 -0.319556,-2.297501 -1.340161,-4.36011 -2.962207,-5.985939 -1.699067,-1.702977 -3.735656,-2.698586 -6.202417,-3.031352 -0.221347,-0.02687 -0.775302,-0.04798 -1.231016,-0.04798 -0.455712,0 -1.009666,0.02303 -1.231015,0.04798 -2.321265,0.313 -4.346292,1.257754 -5.942006,2.772086 -0.361957,0.342361 -0.350204,0.344664 0.142049,0.02687 2.247287,-1.438337 4.319963,-2.10905 6.022828,-1.94804 1.379763,0.118982 2.464859,0.735576 3.352717,1.870702 0.540703,0.69163 0.602157,0.889101 0.707345,2.281381 0.03884,0.514309 0.102766,1.041475 0.142011,1.172931 0.132722,0.439082 0.6554,1.138772 2.248913,3.003909 0.698676,0.818288 0.920906,1.160265 0.802125,1.233381 -0.08659,0.04798 -0.109482,0.04222 -1.533946,-0.407609 -2.522898,-0.806774 -2.756045,-0.878738 -3.195902,-0.989468 -0.787844,-0.198048 -2.164074,-0.37345 -2.355578,-0.303596 -0.05863,0.01919 -0.245352,0.165039 -0.41492,0.300525 -0.169569,0.151606 -0.32933,0.261376 -0.355021,0.261376 -0.07803,0 -0.05285,-0.14201 0.07166,-0.378631 0.06511,-0.118981 0.118368,-0.244296 0.118368,-0.259073 0,-0.01919 -0.07498,-0.02303 -0.166633,-0.02303 -0.155309,0 -0.174193,0.01919 -0.278024,0.24967 l -0.111382,0.247559 -0.03301,-0.149686 c -0.0764,-0.328928 -0.106431,-0.36136 -0.298662,-0.329504 -0.469773,0.07101 -1.001106,0.500876 -1.204682,0.95531 -0.07977,0.18423 -0.10171,0.324705 -0.10503,0.69969 -0.0023,0.260417 0.01267,0.568042 0.03333,0.681843 0.03631,0.205723 0.03466,0.209178 -0.05109,0.140091 -0.122724,-0.10171 -0.137252,-0.09403 -0.173464,0.08252 -0.02474,0.132415 -0.0052,0.220117 0.08805,0.397438 l 0.119884,0.229712 -0.127656,0.03838 c -0.116142,0.03646 -0.126313,0.05565 -0.112764,0.247559 0.01056,0.155444 0.06154,0.267517 0.176362,0.418356 0.186533,0.243529 0.197548,0.291697 0.0668,0.291697 -0.15435,0 -0.109521,0.06909 0.140149,0.235469 0.412317,0.264255 0.712364,0.840741 1.087717,2.091968 0.493589,1.643677 0.860903,2.282917 1.50022,2.610119 0.445725,0.226257 0.591351,0.455777 0.773564,1.214766 0.155847,0.647876 0.370247,0.769928 1.173104,0.669753 0.47862,-0.05565 1.123845,-0.267133 2.143172,-0.689327 0.745238,-0.308201 1.008151,-0.344088 1.098161,-0.153525 0.151011,0.33123 -0.380867,0.763595 -1.997748,1.623719 -0.299468,0.166958 -0.517627,0.289394 -0.484801,0.28997 0.03283,9.6e-4 0.250892,-0.03838 0.484588,-0.08444 z m -2.664574,-4.369515 c -0.703603,-0.261952 -1.022413,-1.000215 -0.702473,-1.628325 0.212734,-0.415667 0.584766,-0.646146 1.047273,-0.646146 0.664663,0 1.15649,0.492429 1.15649,1.156617 0,0.34025 -0.100597,0.586657 -0.334379,0.820591 -0.300565,0.301101 -0.808983,0.429294 -1.166911,0.297263 z m 0.951001,-9.573049 c 0.745168,-0.457697 0.759978,-1.536018 0.02746,-2.001391 -0.563235,-0.356945 -1.294137,-0.186149 -1.650242,0.397822 -0.126543,0.207451 -0.143431,0.274618 -0.143431,0.591647 0,0.30705 0.019,0.390145 0.131264,0.5809 0.246172,0.419315 0.626056,0.618706 1.114121,0.588001 0.223502,-0.01919 0.354292,-0.04798 0.520815,-0.16312 z"
     id="path4966"
     inkscape:connector-curvature="0" />
</svg>
