<?xml version="1.0" encoding="UTF-8" standalone="no"?>
<svg
   xmlns:dc="http://purl.org/dc/elements/1.1/"
   xmlns:cc="http://creativecommons.org/ns#"
   xmlns:rdf="http://www.w3.org/1999/02/22-rdf-syntax-ns#"
   xmlns:svg="http://www.w3.org/2000/svg"
   xmlns="http://www.w3.org/2000/svg"
   xmlns:xlink="http://www.w3.org/1999/xlink"
   xmlns:sodipodi="http://sodipodi.sourceforge.net/DTD/sodipodi-0.dtd"
   xmlns:inkscape="http://www.inkscape.org/namespaces/inkscape"
   viewBox="0 0 64 64"
   id="svg2"
   version="1.1"
   inkscape:version="0.91 r13725"
   sodipodi:docname="user-desktop.svg">
  <metadata
     id="metadata29">
    <rdf:RDF>
      <cc:Work
         rdf:about="">
        <dc:format>image/svg+xml</dc:format>
        <dc:type
           rdf:resource="http://purl.org/dc/dcmitype/StillImage" />
        <dc:title />
      </cc:Work>
    </rdf:RDF>
  </metadata>
  <sodipodi:namedview
     pagecolor="#ffffff"
     bordercolor="#666666"
     borderopacity="1"
     objecttolerance="10"
     gridtolerance="10"
     guidetolerance="10"
     inkscape:pageopacity="0"
     inkscape:pageshadow="2"
     inkscape:window-width="1366"
     inkscape:window-height="746"
     id="namedview27"
     showgrid="false"
     inkscape:zoom="7.375"
     inkscape:cx="32.078369"
     inkscape:cy="29.29015"
     inkscape:window-x="0"
     inkscape:window-y="22"
     inkscape:window-maximized="1"
     inkscape:current-layer="g5498" />
  <defs
     id="defs4">
    <linearGradient
       gradientUnits="userSpaceOnUse"
       y2="354.29"
       x2="-704.05"
       y1="647.77"
       x1="-701.19"
       id="3">
      <stop
         stop-color="#93cfff"
         id="stop7" />
      <stop
         offset="1"
         stop-color="#cde8fe"
         id="stop9" />
    </linearGradient>
    <linearGradient
       xlink:href="#1"
       id="4"
       x1="514.64"
       y1="128.74"
       x2="504.97"
       y2="-331.02"
       gradientUnits="userSpaceOnUse" />
    <linearGradient
       xlink:href="#1"
       id="2"
       x1="59.12"
       y1="-13.295"
       x2="59.15"
       y2="-37.783"
       gradientUnits="userSpaceOnUse"
       gradientTransform="matrix(4.17478 0 0 4.16765-1066.12 447.73)" />
    <linearGradient
       xlink:href="#1"
       id="0"
       gradientUnits="userSpaceOnUse"
       x1="462"
       x2="497.7" />
    <linearGradient
       id="1">
      <stop
         stop-color="#289bf7"
         id="stop15" />
      <stop
         offset="1"
         stop-color="#71b9f1"
         id="stop17" />
    </linearGradient>
    <linearGradient
       gradientTransform="matrix(1.05233,0,0,1.02761,-21.18,-14.703)"
       gradientUnits="userSpaceOnUse"
       y2="504.19"
       x2="409.94"
       y1="542.79999"
       x1="409.57001"
       id="0-6">
      <stop
         stop-color="#86d0fb"
         id="stop28" />
      <stop
         offset="1"
         stop-color="#2794f5"
         id="stop30" />
    </linearGradient>
    <linearGradient
       gradientTransform="matrix(1.03744,0.1329,-0.12755,0.99183,-44.44,-65.12)"
       id="2-0"
       x1="542.83002"
       y1="484.29001"
       x2="543.25"
       y2="463.62"
       gradientUnits="userSpaceOnUse">
      <stop
         stop-color="#132e51"
         id="stop12" />
      <stop
         offset="1"
         stop-color="#2767b9"
         id="stop14" />
    </linearGradient>
    <linearGradient
       inkscape:collect="always"
       xlink:href="#0-6"
       id="linearGradient6330"
       gradientUnits="userSpaceOnUse"
       gradientTransform="matrix(1.05233,0,0,1.02761,-21.18,-14.703)"
       x1="409.57001"
       y1="542.79999"
       x2="409.94"
       y2="504.19" />
    <linearGradient
       inkscape:collect="always"
       xlink:href="#2-0"
       id="linearGradient6332"
       gradientUnits="userSpaceOnUse"
       gradientTransform="matrix(1.03744,0.1329,-0.12755,0.99183,-44.44,-65.12)"
       x1="542.83002"
       y1="484.29001"
       x2="543.25"
       y2="463.62" />
  </defs>
  <g
     transform="matrix(2.2217135,0,0,2.2685624,-3.7421569,-4.296988)"
     id="g5498">
    <g
       id="g34-0"
       transform="matrix(0.5454769,0,0,0.54667355,-206.77977,-270.35037)">
      <flowRoot
         id="flowRoot36-7"
         font-size="10"
         letter-spacing="0"
         line-height="125%"
         word-spacing="0"
         text-align="start"
         transform="translate(389.57,520.8)"
         style="font-size:10px;line-height:125%;font-family:sans-serif;text-align:start;letter-spacing:0;word-spacing:0">
        <flowRegion
           id="flowRegion38-0">
          <path
             id="4-2"
             d="m 22,3 27,0 0,15 -27,0 z"
             inkscape:connector-curvature="0" />
        </flowRegion>
        <flowPara
           id="flowPara41-8">Plasm</flowPara>
      </flowRoot>
      <g
         id="g43-6"
         transform="matrix(1.57597,0,0,1.57597,-222.8,-314.3)">
        <rect
           id="rect45-8"
           transform="matrix(0.65763,0,0,0.65763,131.81,186.74)"
           rx="1.6440001"
           width="46.299999"
           height="34.938999"
           x="385.62"
           y="507.12"
           style="fill:url(#linearGradient6330);stroke-width:1" />
        <g
           id="g47-7"
           transform="translate(-36.836,-0.954)">
          <flowRoot
             id="flowRoot49-4"
             font-size="10"
             line-height="125%"
             text-align="start"
             word-spacing="0"
             letter-spacing="0"
             transform="translate(389.57,520.8)"
             style="font-size:10px;line-height:125%;font-family:sans-serif;text-align:start;letter-spacing:0;word-spacing:0">
            <flowRegion
               id="flowRegion51-7">
              <use
                 id="use53-8"
                 xlink:href="#4-2"
                 x="0"
                 y="0"
                 width="100%"
                 height="100%" />
            </flowRegion>
            <flowPara
               id="flowPara55-3">Plasm</flowPara>
          </flowRoot>
          <g
             id="g57-2"
             transform="matrix(0.37339,-0.04589,0.04589,0.37339,243.97,379.44)">
            <path
               id="path59-1"
               d="m 418.93,476.09 15.912,-2.498 4.568,3.717 11.916,-2.094 10.881,4.975 7.95,2.692 6.5,-1.142 7.926,-0.747 16.205,-8.689 -3.197,27.1 c -0.159,3.559 -3.701,2.873 -3.701,2.873 l -74.27,-9.129 c 0,0 -2.691,-1.031 -2.305,-4.111 z"
               inkscape:connector-curvature="0"
               style="fill:url(#linearGradient6332);fill-rule:evenodd" />
            <circle
               id="circle61-4"
               r="6.9759998"
               cy="448.97"
               cx="436.92001"
               style="fill:#ffffff;fill-opacity:0.75" />
          </g>
        </g>
      </g>
    </g>
    <path
       d="m 2.9966083,24.145195 0,1.455056 0,0.363764 0.4514146,0 25.2792131,0 0.451416,0 0,-0.363764 0,-1.455056 -26.1820437,0 z"
       id="rect4128"
       style="fill:#ffffff;fill-opacity:0.78431396"
       inkscape:connector-curvature="0" />
    <g
       transform="matrix(0.29478435,0,0,0.29478435,-101.6336,-134.00854)"
       id="text4213">
      <path
         d="m 434.23853,537.83412 c -0.15893,0.11003 -0.36677,0.22414 -0.54201,0.30157 l 0.0734,0.28934 c 0.14264,-0.0448 0.27305,-0.12225 0.43198,-0.22414 l 0,2.60819 0.35455,0 0,-2.97496 -0.31787,0 z"
         id="path4218"
         inkscape:connector-curvature="0" />
      <path
         d="m 435.20119,538.03381 0.11819,0.29749 c 0.16708,-0.17116 0.41568,-0.24452 0.66427,-0.24452 0.33825,0 0.52571,0.18747 0.52571,0.51757 l 0,0.0204 c -0.004,0.2323 -0.15486,0.46051 -0.38715,0.71726 l -1.02697,1.14108 0.0448,0.32602 1.74016,0 0.0245,-0.30565 -1.38153,0 0.83951,-0.89656 c 0.32603,-0.35048 0.52572,-0.63575 0.52979,-1.01067 l 0,-0.0122 c 0,-0.48904 -0.34232,-0.81098 -0.88434,-0.81098 -0.38715,0 -0.63982,0.10595 -0.80691,0.26082 z"
         id="path4220"
         inkscape:connector-curvature="0" />
      <path
         d="m 437.42599,540.85799 0.4116,0 0,-0.46459 -0.4116,0 0,0.46459 z m 0,-1.82574 0.4116,0 0,-0.46051 -0.4116,0 0,0.46051 z"
         id="path4222"
         inkscape:connector-curvature="0" />
      <path
         d="m 439.75394,539.98995 c 0,0.3627 -0.2649,0.56239 -0.65613,0.56239 -0.30157,0 -0.50941,-0.0978 -0.6602,-0.21599 l -0.1141,0.28934 c 0.11003,0.10596 0.39122,0.22822 0.77838,0.22822 0.57869,0 1.00252,-0.3301 1.00252,-0.85989 0,-0.41975 -0.23229,-0.68872 -0.59499,-0.77023 0.32195,-0.0978 0.52164,-0.3301 0.52164,-0.71317 0,-0.47681 -0.41161,-0.73763 -0.85174,-0.73763 -0.41161,0 -0.6765,0.0897 -0.85581,0.22821 l 0.1141,0.28935 c 0.15894,-0.12634 0.39123,-0.21192 0.66428,-0.21192 0.35047,0 0.54609,0.14671 0.54609,0.47681 0,0.46866 -0.43198,0.52164 -0.88842,0.52164 l 0,0.29342 c 0.55424,0 0.99438,0.0856 0.99438,0.61945 z"
         id="path4224"
         inkscape:connector-curvature="0" />
      <path
         d="m 441.86538,538.2824 0,1.49971 -0.99437,0 0.99437,-1.49971 z m 0.67243,1.78905 0.0285,-0.28934 -0.36678,0 0,-1.94799 -0.37085,0 -1.30817,1.93169 0,0.30564 1.34484,0 0,0.73763 0.33418,0 0,-0.73763 0.33825,0 z"
         id="path4226"
         inkscape:connector-curvature="0" />
    </g>
    <path
       d="m 3.6400516,24.583592 a 0.07578414,0.07578414 0 0 0 -0.075786,0.07579 0.07578414,0.07578414 0 0 0 0.075786,0.07578 0.07578414,0.07578414 0 0 0 0.075781,-0.07578 0.07578414,0.07578414 0 0 0 -0.075781,-0.07579 z m 0.3789192,0 -0.1468333,0.118414 0.1965645,0.243931 -0.184724,0.184725 0.1349928,0.134988 0.3031378,-0.303138 -0.3031378,-0.37892 z M 3.5263754,24.88673 A 0.11367622,0.11367622 0 0 0 3.4126992,25.000407 0.11367622,0.11367622 0 0 0 3.5263754,25.114083 0.11367622,0.11367622 0 0 0 3.6400516,25.000407 0.11367622,0.11367622 0 0 0 3.5263754,24.88673 Z m 0.2273525,0.37892 A 0.11367622,0.11367622 0 0 0 3.6400516,25.379325 0.11367622,0.11367622 0 0 0 3.7537279,25.493002 0.11367622,0.11367622 0 0 0 3.867404,25.379325 0.11367622,0.11367622 0 0 0 3.7537279,25.26565 Z"
       id="path2994"
       style="color:#000000"
       inkscape:connector-curvature="0" />
  </g>
</svg>
